<?xml version="1.0" encoding="UTF-8" standalone="no"?><svg xmlns="http://www.w3.org/2000/svg" xmlns:xlink="http://www.w3.org/1999/xlink" contentScriptType="application/ecmascript" contentStyleType="text/css" height="651px" preserveAspectRatio="none" style="width:359px;height:651px;" version="1.1" viewBox="0 0 359 651" width="359px" zoomAndPan="magnify"><defs><filter height="300%" id="fp4bw7e4gt2ix" width="300%" x="-1" y="-1"><feGaussianBlur result="blurOut" stdDeviation="2.0"/><feColorMatrix in="blurOut" result="blurOut2" type="matrix" values="0 0 0 0 0 0 0 0 0 0 0 0 0 0 0 0 0 0 .4 0"/><feOffset dx="4.0" dy="4.0" in="blurOut2" result="blurOut3"/><feBlend in="SourceGraphic" in2="blurOut3" mode="normal"/></filter></defs><g><rect fill="#FEFECE" filter="url(#fp4bw7e4gt2ix)" height="37.6094" style="stroke: #A80036; stroke-width: 1.5;" width="45" x="175.5" y="7"/><text fill="#000000" font-family="sans-serif" font-size="12" lengthAdjust="spacingAndGlyphs" textLength="31" x="182.5" y="20.1387">Song</text><line style="stroke: #A80036; stroke-width: 1.5;" x1="176.5" x2="219.5" y1="24.9688" y2="24.9688"/><text fill="#000000" font-family="sans-serif" font-size="10" lengthAdjust="spacingAndGlyphs" textLength="9" x="181.5" y="38.251">...</text><rect fill="#FEFECE" filter="url(#fp4bw7e4gt2ix)" height="37.6094" style="stroke: #A80036; stroke-width: 1.5;" width="77" x="39.5" y="203"/><text fill="#000000" font-family="sans-serif" font-size="12" lengthAdjust="spacingAndGlyphs" textLength="63" x="46.5" y="216.1387">Instrument</text><line style="stroke: #A80036; stroke-width: 1.5;" x1="40.5" x2="115.5" y1="220.9688" y2="220.9688"/><text fill="#000000" font-family="sans-serif" font-size="10" lengthAdjust="spacingAndGlyphs" textLength="9" x="45.5" y="234.251">...</text><rect fill="#FEFECE" filter="url(#fp4bw7e4gt2ix)" height="37.6094" style="stroke: #A80036; stroke-width: 1.5;" width="56" x="7" y="301"/><text fill="#000000" font-family="sans-serif" font-size="12" lengthAdjust="spacingAndGlyphs" textLength="42" x="14" y="314.1387">Device</text><line style="stroke: #A80036; stroke-width: 1.5;" x1="8" x2="62" y1="318.9688" y2="318.9688"/><text fill="#000000" font-family="sans-serif" font-size="10" lengthAdjust="spacingAndGlyphs" textLength="9" x="13" y="332.251">...</text><rect fill="#FEFECE" filter="url(#fp4bw7e4gt2ix)" height="37.6094" style="stroke: #A80036; stroke-width: 1.5;" width="47" x="132.5" y="105"/><text fill="#000000" font-family="sans-serif" font-size="12" lengthAdjust="spacingAndGlyphs" textLength="33" x="139.5" y="118.1387">Track</text><line style="stroke: #A80036; stroke-width: 1.5;" x1="133.5" x2="178.5" y1="122.9688" y2="122.9688"/><text fill="#000000" font-family="sans-serif" font-size="10" lengthAdjust="spacingAndGlyphs" textLength="9" x="138.5" y="136.251">...</text><rect fill="#FEFECE" filter="url(#fp4bw7e4gt2ix)" height="37.6094" style="stroke: #A80036; stroke-width: 1.5;" width="52" x="215" y="105"/><text fill="#000000" font-family="sans-serif" font-size="12" lengthAdjust="spacingAndGlyphs" textLength="38" x="222" y="118.1387">Scene</text><line style="stroke: #A80036; stroke-width: 1.5;" x1="216" x2="266" y1="122.9688" y2="122.9688"/><text fill="#000000" font-family="sans-serif" font-size="10" lengthAdjust="spacingAndGlyphs" textLength="9" x="221" y="136.251">...</text><rect fill="#FEFECE" filter="url(#fp4bw7e4gt2ix)" height="37.6094" style="stroke: #A80036; stroke-width: 1.5;" width="55" x="208.5" y="301"/><text fill="#000000" font-family="sans-serif" font-size="12" lengthAdjust="spacingAndGlyphs" textLength="41" x="215.5" y="314.1387">Pattern</text><line style="stroke: #A80036; stroke-width: 1.5;" x1="209.5" x2="262.5" y1="318.9688" y2="318.9688"/><text fill="#000000" font-family="sans-serif" font-size="10" lengthAdjust="spacingAndGlyphs" textLength="9" x="214.5" y="332.251">...</text><rect fill="#FEFECE" filter="url(#fp4bw7e4gt2ix)" height="37.6094" style="stroke: #A80036; stroke-width: 1.5;" width="75" x="98.5" y="301"/><text fill="#000000" font-family="sans-serif" font-size="12" lengthAdjust="spacingAndGlyphs" textLength="61" x="105.5" y="314.1387">Transform</text><line style="stroke: #A80036; stroke-width: 1.5;" x1="99.5" x2="172.5" y1="318.9688" y2="318.9688"/><text fill="#000000" font-family="sans-serif" font-size="10" lengthAdjust="spacingAndGlyphs" textLength="9" x="104.5" y="332.251">...</text><rect fill="#FEFECE" filter="url(#fp4bw7e4gt2ix)" height="37.6094" style="stroke: #A80036; stroke-width: 1.5;" width="47" x="293.5" y="399"/><text fill="#000000" font-family="sans-serif" font-size="12" lengthAdjust="spacingAndGlyphs" textLength="33" x="300.5" y="412.1387">Scale</text><line style="stroke: #A80036; stroke-width: 1.5;" x1="294.5" x2="339.5" y1="416.9688" y2="416.9688"/><text fill="#000000" font-family="sans-serif" font-size="10" lengthAdjust="spacingAndGlyphs" textLength="9" x="299.5" y="430.251">...</text><rect fill="#FEFECE" filter="url(#fp4bw7e4gt2ix)" height="37.6094" style="stroke: #A80036; stroke-width: 1.5;" width="36" x="152" y="203"/><text fill="#000000" font-family="sans-serif" font-size="12" lengthAdjust="spacingAndGlyphs" textLength="22" x="159" y="216.1387">Clip</text><line style="stroke: #A80036; stroke-width: 1.5;" x1="153" x2="187" y1="220.9688" y2="220.9688"/><text fill="#000000" font-family="sans-serif" font-size="10" lengthAdjust="spacingAndGlyphs" textLength="9" x="158" y="234.251">...</text><rect fill="#FEFECE" filter="url(#fp4bw7e4gt2ix)" height="33.9688" style="stroke: #A80036; stroke-width: 1.5;" width="66" x="252" y="499"/><text fill="#000000" font-family="sans-serif" font-size="12" lengthAdjust="spacingAndGlyphs" textLength="52" x="259" y="512.1387">DataPool</text><line style="stroke: #A80036; stroke-width: 1.5;" x1="253" x2="317" y1="516.9688" y2="516.9688"/><rect fill="#FEFECE" filter="url(#fp4bw7e4gt2ix)" height="37.6094" style="stroke: #A80036; stroke-width: 1.5;" width="69" x="147.5" y="497"/><text fill="#000000" font-family="sans-serif" font-size="12" lengthAdjust="spacingAndGlyphs" textLength="55" x="154.5" y="510.1387">Evaluator</text><line style="stroke: #A80036; stroke-width: 1.5;" x1="148.5" x2="215.5" y1="514.9688" y2="514.9688"/><text fill="#000000" font-family="sans-serif" font-size="10" lengthAdjust="spacingAndGlyphs" textLength="9" x="153.5" y="528.251">...</text><rect fill="#FEFECE" filter="url(#fp4bw7e4gt2ix)" height="37.6094" style="stroke: #A80036; stroke-width: 1.5;" width="63" x="150.5" y="399"/><text fill="#000000" font-family="sans-serif" font-size="12" lengthAdjust="spacingAndGlyphs" textLength="23" x="170.5" y="412.1387">Slot</text><line style="stroke: #A80036; stroke-width: 1.5;" x1="151.5" x2="212.5" y1="416.9688" y2="416.9688"/><text fill="#000000" font-family="sans-serif" font-size="10" lengthAdjust="spacingAndGlyphs" textLength="51" x="156.5" y="430.251">modifiers</text><rect fill="#FEFECE" filter="url(#fp4bw7e4gt2ix)" height="37.6094" style="stroke: #A80036; stroke-width: 1.5;" width="64" x="201" y="595"/><text fill="#000000" font-family="sans-serif" font-size="12" lengthAdjust="spacingAndGlyphs" textLength="50" x="208" y="608.1387">DataSlot</text><line style="stroke: #A80036; stroke-width: 1.5;" x1="202" x2="264" y1="612.9688" y2="612.9688"/><text fill="#000000" font-family="sans-serif" font-size="10" lengthAdjust="spacingAndGlyphs" textLength="30" x="207" y="626.251">value</text><!--MD5=[4bb10e2dab6b4dbea7a79d9030e5d1f4]
link Song to Instrument--><path codeLine="15" d="M175.231,43.14 C156.598,57.444 130.821,79.91 115,105 C98.4287,131.279 88.6896,165.618 83.3998,190.101 " fill="none" id="Song-&gt;Instrument" style="stroke: #A80036; stroke-width: 1.0;"/><polygon fill="#A80036" points="80.8424,202.907,85.9399,197.8065,83.1923,191.1393,78.0948,196.2399,80.8424,202.907" style="stroke: #A80036; stroke-width: 1.0;"/><!--MD5=[4ba278c2b74755ec3361bdadd0af112a]
reverse link Instrument to Device--><path codeLine="16" d="M64.4373,253.279 C57.4637,268.849 49.1939,287.311 43.1979,300.698 " fill="none" id="Instrument&lt;-Device" style="stroke: #A80036; stroke-width: 1.0;"/><polygon fill="#A80036" points="69.912,241.057,63.8088,244.8976,65.0065,252.0086,71.1098,248.1679,69.912,241.057" style="stroke: #A80036; stroke-width: 1.0;"/><!--MD5=[391ff1d4480137b475c8bd0c5ea94f7d]
link Track to Instrument--><path codeLine="17" d="M141.329,143.057 C130.07,156.914 114.307,176.314 101.3249,192.292 " fill="none" id="Track-&gt;Instrument" style="stroke: #A80036; stroke-width: 1.0;"/><polygon fill="#A80036" points="92.8706,202.698,99.7585,200.5634,100.4374,193.3843,93.5494,195.5189,92.8706,202.698" style="stroke: #A80036; stroke-width: 1.0;"/><!--MD5=[1421ccda4e98e1f14736e9d382e748e6]
link Scene to Pattern--><path codeLine="18" d="M240.53,143.251 C239.675,176.411 237.858,246.891 236.804,287.808 " fill="none" id="Scene-&gt;Pattern" style="stroke: #A80036; stroke-width: 1.0;"/><polygon fill="#A80036" points="236.465,300.939,240.618,295.0438,236.7736,288.943,232.6206,294.8381,236.465,300.939" style="stroke: #A80036; stroke-width: 1.0;"/><!--MD5=[66b6a3cdbb3be5e03c433da1918ed0b0]
link Scene to Scale--><path codeLine="19" d="M246.937,143.191 C251.995,158.941 259.326,182.372 265,203 C284.825,275.07 304.696,361.868 312.982,398.869 " fill="none" id="Scene-Scale" style="stroke: #A80036; stroke-width: 1.0;"/><!--MD5=[c6a75b2508ce67732f89eb79dc9a9952]
link Song to Scale--><path codeLine="20" d="M220.857,41.381 C240.795,55.19 268.836,77.914 284,105 C339.477,204.095 326.477,348.734 319.743,398.997 " fill="none" id="Song-Scale" style="stroke: #A80036; stroke-width: 1.0;"/><!--MD5=[d92547e51822182208d6726d8844e04a]
link Song to Track--><path codeLine="21" d="M190.1,45.057 C184.271,58.381 176.199,76.83 169.373,92.434 " fill="none" id="Song-&gt;Track" style="stroke: #A80036; stroke-width: 1.0;"/><polygon fill="#A80036" points="164.007,104.698,170.0764,100.8041,168.8163,93.7039,162.747,97.5978,164.007,104.698" style="stroke: #A80036; stroke-width: 1.0;"/><!--MD5=[b0b698b7702ae7ee095a347c5b1b7cc1]
link Song to Scene--><path codeLine="22" d="M206.088,45.057 C212.056,58.381 220.32,76.83 227.309,92.434 " fill="none" id="Song-&gt;Scene" style="stroke: #A80036; stroke-width: 1.0;"/><polygon fill="#A80036" points="232.802,104.698,234.0005,97.5872,227.8976,93.746,226.6991,100.8568,232.802,104.698" style="stroke: #A80036; stroke-width: 1.0;"/><!--MD5=[85dab6e6a956191629d3f212750b32ba]
link Pattern to Scale--><path codeLine="23" d="M251.235,339.057 C263.04,353.047 279.611,372.688 293.166,388.752 " fill="none" id="Pattern-&gt;Scale" style="stroke: #A80036; stroke-width: 1.0;"/><polygon fill="#A80036" points="301.557,398.698,300.7451,391.5327,293.8188,389.5263,294.6307,396.6916,301.557,398.698" style="stroke: #A80036; stroke-width: 1.0;"/><!--MD5=[8e2df7fc7c0398c8f7b5e146cacf5c16]
link Pattern to Slot--><path codeLine="24" d="M225.843,339.057 C218.198,352.647 207.554,371.57 198.669,387.367 " fill="none" id="Pattern-&gt;Slot" style="stroke: #A80036; stroke-width: 1.0;"/><polygon fill="#A80036" points="192.295,398.698,198.7228,395.4295,198.1779,388.239,191.7501,391.5075,192.295,398.698" style="stroke: #A80036; stroke-width: 1.0;"/><!--MD5=[23d20a29f62efd408d62e63552bd8daf]
link Transform to Slot--><path codeLine="25" d="M144.652,339.057 C151.1,352.514 160.054,371.199 167.578,386.901 " fill="none" id="Transform-&gt;Slot" style="stroke: #A80036; stroke-width: 1.0;"/><polygon fill="#A80036" points="173.23,398.698,174.2449,391.5587,168.0451,387.8759,167.0302,395.0153,173.23,398.698" style="stroke: #A80036; stroke-width: 1.0;"/><!--MD5=[d05547012b09a5b94318a282cb69331b]
link Clip to Pattern--><path codeLine="26" d="M182.414,241.057 C191.849,254.781 205.022,273.941 215.946,289.831 " fill="none" id="Clip-&gt;Pattern" style="stroke: #A80036; stroke-width: 1.0;"/><polygon fill="#A80036" points="223.417,300.698,223.3137,293.4876,216.6183,290.8098,216.7216,298.0201,223.417,300.698" style="stroke: #A80036; stroke-width: 1.0;"/><!--MD5=[836afbb116a01540cd2a93453e3b4424]
link Clip to Transform--><path codeLine="27" d="M163.605,241.057 C158.886,254.381 152.352,272.83 146.825,288.434 " fill="none" id="Clip-&gt;Transform" style="stroke: #A80036; stroke-width: 1.0;"/><polygon fill="#A80036" points="142.482,300.698,148.2556,296.3776,146.4881,289.3865,140.7145,293.7069,142.482,300.698" style="stroke: #A80036; stroke-width: 1.0;"/><!--MD5=[456fb5f42bbcc0f652ba68b1770dede6]
link Scene to Clip--><path codeLine="28" d="M227.645,143.057 C217.496,156.781 203.325,175.941 191.573,191.831 " fill="none" id="Scene-&gt;Clip" style="stroke: #A80036; stroke-width: 1.0;"/><polygon fill="#A80036" points="183.536,202.698,190.3198,200.2526,190.6717,193.0501,183.8879,195.4955,183.536,202.698" style="stroke: #A80036; stroke-width: 1.0;"/><!--MD5=[ba02bcb2570a673e261575fc4eee7afa]
link Track to Clip--><path codeLine="29" d="M158.633,143.057 C160.538,156.114 163.16,174.094 165.405,189.495 " fill="none" id="Track-&gt;Clip" style="stroke: #A80036; stroke-width: 1.0;"/><polygon fill="#A80036" points="167.331,202.698,170.4235,196.1837,165.5996,190.8236,162.5072,197.3379,167.331,202.698" style="stroke: #A80036; stroke-width: 1.0;"/><!--MD5=[a6d2cee89edc1b869ecec7e3a7677464]
link DataPool to DataSlot--><path codeLine="30" d="M276.179,533.2851 C268.79,546.9262 258.051,566.7528 249.131,583.2199 " fill="none" id="DataPool-&gt;DataSlot" style="stroke: #A80036; stroke-width: 1.0;"/><polygon fill="#A80036" points="242.75,594.9995,249.1248,591.6287,248.4652,584.4479,242.0904,587.8186,242.75,594.9995" style="stroke: #A80036; stroke-width: 1.0;"/><!--MD5=[52ad84037037bd381eb1388eae6b5716]
link Slot to Evaluator--><path codeLine="31" d="M182,437.057 C182,450.114 182,468.094 182,483.495 " fill="none" id="Slot-&gt;Evaluator" style="stroke: #A80036; stroke-width: 1.0;"/><polygon fill="#A80036" points="182,496.698,186,490.698,182,484.698,178,490.698,182,496.698" style="stroke: #A80036; stroke-width: 1.0;"/><!--MD5=[f494a167a4c953611c9869da94c2629f]
link Evaluator to DataSlot--><path codeLine="32" d="M191.593,535.0569 C198.742,548.5141 208.668,567.1993 217.01,582.9014 " fill="none" id="Evaluator-&gt;DataSlot" style="stroke: #A80036; stroke-width: 1.0;"/><polygon fill="#A80036" points="223.277,594.6977,223.9943,587.5224,217.6469,584.1005,216.9295,591.2758,223.277,594.6977" style="stroke: #A80036; stroke-width: 1.0;"/><!--MD5=[fff656e183fe42e656bebdca722d6073]
@startuml
object Song
object Instrument
object Device
object Track
object Scene
object Pattern
object Transform
object Scale
object Clip
object DataPool
object Evaluator
object Slot
object DataSlot

Song - -* Instrument
Instrument *- - Device
Track - -* Instrument
Scene - -* Pattern
Scene - - Scale
Song - - Scale
Song - -* Track
Song - -* Scene
Pattern - -* Scale
Pattern - -* Slot
Transform - -* Slot
Clip - -* Pattern
Clip - -* Transform
Scene - -* Clip
Track - -* Clip
DataPool - -* DataSlot
Slot - -* Evaluator
Evaluator - -* DataSlot

Song : ...
Clip : ...
Device : ...
Instrument : ...
Track : ...
Scale : ...
Scene : ...
Transform : ...
Pattern : ...
Evaluator : ...
DataSlot : value
Slot : modifiers
@enduml

PlantUML version 1.2020.16beta7(Unknown compile time)
(GPL source distribution)
Java Runtime: Java(TM) SE Runtime Environment
JVM: Java HotSpot(TM) 64-Bit Server VM
Default Encoding: UTF-8
Language: en
Country: US
--></g></svg>